DATA 622 Assignment 4
…
# Split into training and test data
set.seed(123)
# split the data into training (75%) and testing (25%)
data_split <- initial_split(data, prop = .75)
data_split

## <Analysis/Assess/Total>
## <129/42/171>

data_train <- training(data_split)
data_test <- testing(data_split)

data_train

## # A tibble: 129 x 53
##      Age ADHD.Q1 ADHD.Q2 ADHD.Q3 ADHD.Q4 ADHD.Q5 ADHD.Q6 ADHD.Q7 ADHD.Q8 ADHD.Q9
##    <dbl>   <dbl>   <dbl>   <dbl>   <dbl>   <dbl>   <dbl>   <dbl>   <dbl>   <dbl>
##  1    24       1       1       4       2       3       1       1       3       2
##  2    48       3       3       4       4       5       2       2       3       2
##  3    51       2       1       2       1       3       3       3       2       0
##  4    43       3       3       2       2       4       3       2       4       4
##  5    34       4       4       2       4       4       2       3       4       4
##  6    39       2       3       1       4       3       2       3       4       4
##  7    48       2       4       3       4       3       3       1       1       4
##  8    44       3       3       3       4       4       3       3       4       3
##  9    27       2       3       4       4       4       3       4       3       2
## 10    44       2       3       2       3       3       3       3       3       2
## #  with 119 more rows, and 43 more variables: ADHD.Q10 <dbl>, ADHD.Q11 <dbl>,
## #   ADHD.Q12 <dbl>, ADHD.Q13 <dbl>, ADHD.Q14 <dbl>, ADHD.Q15 <dbl>,
## #   ADHD.Q16 <dbl>, ADHD.Q17 <dbl>, ADHD.Q18 <dbl>, ADHD.Total <dbl>,
## #   MD.Q1a <dbl>, MD.Q1b <dbl>, MD.Q1c <dbl>, MD.Q1d <dbl>, MD.Q1e <dbl>,
## #   MD.Q1f <dbl>, MD.Q1g <dbl>, MD.Q1h <dbl>, MD.Q1i <dbl>, MD.Q1j <dbl>,
## #   MD.Q1k <dbl>, MD.Q1L <dbl>, MD.Q1m <dbl>, MD.Q2 <fct>, MD.Q3 <dbl>,
## #   MD.TOTAL <dbl>, Alcohol <dbl>, THC <dbl>, Cocaine <dbl>, Stimulants <dbl>,
## #   Sedative.hypnotics <dbl>, Opioids <dbl>, Education <dbl>, fSex <fct>,
## #   fRace <chr>, fCO <chr>, fHViol <chr>, fDCond <chr>, fSuic <fct>,
…
## # A tibble: 5 x 8
##       cost rbf_sigma .metric .estimator  mean     n std_err .config             
##      <dbl>     <dbl> <chr>   <chr>      <dbl> <int>   <dbl> <fct>               
## 1  0.501    4.26e- 2 roc_auc binary     0.702    15  0.0367 Preprocessor1_Model
## 2 14.8      3.56e- 3 roc_auc binary     0.699    15  0.0286 Preprocessor1_Model
## 3  0.484    1.76e-10 roc_auc binary     0.694    15  0.0314 Preprocessor1_Model
## 4  9.40     2.37e- 6 roc_auc binary     0.686    15  0.0345 Preprocessor1_Model
## 5  0.00723  3.97e- 7 roc_auc binary     0.678    15  0.0339 Preprocessor1_Model

# As save_pred = TRUE, we have kept the out-of-sample predictions for each sample
collect_predictions(recipe_res)

## # A tibble: 3,870 x 10
##    id      id2   .pred_No .pred_Yes  .row  cost rbf_sigma .pred_class fSuic
##    <chr>   <chr>    <dbl>     <dbl> <int> <dbl>     <dbl> <fct>       <fct>
##  1 Repeat1 Fold1    0.824     0.176     1 0.501    0.0426 No          Yes  
##  2 Repeat1 Fold1    0.272     0.728     3 0.501    0.0426 Yes         No   
##  3 Repeat1 Fold1    0.820     0.180     8 0.501    0.0426 No          No   
##  4 Repeat1 Fold1    0.128     0.872     9 0.501    0.0426 Yes         No   
##  5 Repeat1 Fold1    0.458     0.542    11 0.501    0.0426 No          No   
##  6 Repeat1 Fold1    0.698     0.302    14 0.501    0.0426 No          No   
##  7 Repeat1 Fold1    0.601     0.399    15 0.501    0.0426 No          No   
##  8 Repeat1 Fold1    0.820     0.180    17 0.501    0.0426 No          No   
##  9 Repeat1 Fold1    0.227     0.773    19 0.501    0.0426 Yes         Yes  
## 10 Repeat1 Fold1    0.820     0.180    37 0.501    0.0426 No          No   
## #  with 3,860 more rows, and 1 more variable: .config <fct>
…
svm_predictions <- svm_last_fit %>% collect_predictions()

conf_mat(svm_predictions, truth = fSuic, estimate = .pred_class)

##           Truth
## Prediction No Yes
##        No  30   5
##        Yes  1   6

svm_predictions

## # A tibble: 42 x 7
##    id              .pred_No .pred_Yes  .row .pred_class fSuic .config           
##    <chr>              <dbl>     <dbl> <int> <fct>       <fct> <fct>             
##  1 train/test spl   0.481      0.519     7 No          No    Preprocessor1_Mod
##  2 train/test spl   0.795      0.205    14 No          No    Preprocessor1_Mod
##  3 train/test spl   0.464      0.536    23 No          No    Preprocessor1_Mod
##  4 train/test spl   0.0460     0.954    26 Yes         Yes   Preprocessor1_Mod
##  5 train/test spl   0.791      0.209    32 No          No    Preprocessor1_Mod
##  6 train/test spl   0.794      0.206    34 No          No    Preprocessor1_Mod
##  7 train/test spl   0.793      0.207    38 No          No    Preprocessor1_Mod
##  8 train/test spl   0.821      0.179    43 No          No    Preprocessor1_Mod
##  9 train/test spl   0.794      0.206    50 No          No    Preprocessor1_Mod
## 10 train/test spl   0.141      0.859    53 Yes         Yes   Preprocessor1_Mod
## #  with 32 more rows
…
